<?xml version="1.0" encoding="utf-8"?>
<!-- Generator: Adobe Illustrator 16.0.3, SVG Export Plug-In . SVG Version: 6.00 Build 0)  -->
<!DOCTYPE svg PUBLIC "-//W3C//DTD SVG 1.1//EN" "http://www.w3.org/Graphics/SVG/1.1/DTD/svg11.dtd">
<svg version="1.1" id="Ebene_1" xmlns:v="https://vecta.io/nano"
	 xmlns="http://www.w3.org/2000/svg" xmlns:xlink="http://www.w3.org/1999/xlink" x="0px" y="0px" width="512px" height="512px"
	 viewBox="0 0 512 512" enable-background="new 0 0 512 512" xml:space="preserve">
<g>
	<path fill-rule="evenodd" clip-rule="evenodd" fill="#D0DBC0" d="M285.715,493.975c-75.396,0-150.791,0-226.186,0
		c-9.721-3.067-13.058-7.492-13.062-17.934c-0.054-125.539,0.044-251.077-0.168-376.615c-0.019-11.19,8.949-20.086,19.964-20.057
		c86.316,0.223,172.634,0.118,258.95,0.146c1.692,0,3.404-0.105,5.053,0.374c3.558,1.637,2.006,3.519,0.091,5.168
		c-2.806,2.414-6.178,4.011-9.251,6.045c-1.408,0.934-2.847,1.827-4.187,2.858c-4.151,3.195-4.429,5.662-0.723,9.48
		c7.492,7.715,15.2,15.22,22.764,22.866c1.709,1.727,3.724,3.287,4.096,5.953c-0.114,2.772-2.167,4.342-3.882,6.07
		c-8.701,8.769-17.46,17.482-26.188,26.224c-1.528,1.529-3.074,3.042-4.322,4.825c-1.654,2.363-2.38,4.783-0.046,7.103
		c2.215,2.201,4.528,1.342,6.718-0.126c2.585-1.737,4.729-3.979,6.72-6.341c7.678-9.114,16.58-17.032,24.882-25.536
		c1.51-1.548,3.151-3.023,5.589-2.839c2.448,0.452,3.992,2.248,5.62,3.873c7.431,7.417,14.986,14.713,22.206,22.334
		c2.895,3.055,5.683,4.684,9.637,2.025c1.053-0.708,2.278-1.115,3.248,0.294c1.188,1.979,0.959,4.179,0.959,6.324
		c0.017,64.67-0.02,129.343,0.067,194.013c0.009,5.957-2.003,10.604-6.014,14.943c-17.785,19.247-35.32,38.726-52.939,58.127
		c-10.676,11.755-21.256,23.601-32.142,35.165c-2.858,3.036-5.383,6.348-8.288,9.346
		C292.247,490.802,289.417,493.015,285.715,493.975z"/>
	<path fill-rule="evenodd" clip-rule="evenodd" fill="#FE4141" d="M332.241,81.615c14.86-9.588,29.709-19.196,44.601-28.736
		c1.678-1.076,1.929-2.712,2.276-4.325c1.326-6.165,2.73-12.32,3.78-18.534c0.683-4.038,1.938-7.669,4.785-10.663
		c2.163,0,4.327,0,6.489,0c22.373,22.359,44.749,44.716,67.114,67.083c1.41,1.409,2.938,2.705,3.678,4.69
		c1.65,4.445-0.249,7.914-4.995,8.893c-7.702,1.589-15.413,3.136-23.109,4.753c-1.921,0.404-3.771,0.714-5.053,2.737
		c-13.126,20.715-26.356,41.364-39.559,62.033c-4.495,5.133-7.705,5.133-12.617,0.224c-9.175-9.167-18.419-18.263-27.633-27.389
		c-4.456-2.056-7.745-5.287-9.818-9.742c-9.09-9.206-18.185-18.407-27.27-27.618c-5.057-5.128-4.7-8.633,1.249-12.617
		C321.523,88.814,326.881,85.213,332.241,81.615z"/>
	<path fill-rule="evenodd" clip-rule="evenodd" fill="#B2B2B2" d="M220.316,260.376c38.289,0,76.577-0.003,114.866,0.005
		c1.542,0,3.127-0.147,4.618,0.145c3.791,0.743,6.141,3.113,6.047,7.041c-0.09,3.712-2.461,5.884-6.042,6.569
		c-1.346,0.256-2.769,0.141-4.156,0.141c-76.888,0.005-153.773,0.005-230.66,0.005c-0.463,0-0.926,0.005-1.39-0.003
		c-5.613-0.087-8.849-2.527-8.819-6.652c0.033-4.593,3.158-7.233,8.817-7.238C142.503,260.366,181.41,260.376,220.316,260.376z"/>
	<path fill-rule="evenodd" clip-rule="evenodd" fill="#B2B2B2" d="M220.882,305.797c37.98,0,75.959,0,113.94,0.005
		c1.544,0,3.113-0.138,4.625,0.089c3.813,0.577,6.187,2.785,6.438,6.723c0.229,3.564-2.717,6.574-6.638,7.028
		c-1.066,0.123-2.157,0.058-3.239,0.058c-77.04,0.003-154.081,0.005-231.123-0.002c-1.388,0-2.819,0.125-4.154-0.162
		c-3.806-0.815-5.878-3.272-5.932-7.186c-0.051-3.768,2.53-5.474,5.684-6.314c1.597-0.425,3.372-0.229,5.067-0.231
		C143.995,305.797,182.438,305.797,220.882,305.797z"/>
	<path fill-rule="evenodd" clip-rule="evenodd" fill="#B2B2B2" d="M220.332,351.219c38.438,0,76.878-0.002,115.317,0.003
		c6.638,0,10.408,2.486,10.226,6.71c-0.178,4.113-4.514,7.188-10.253,7.188c-77.032,0.008-154.064,0.005-231.097-0.005
		c-1.384,0-2.829,0.1-4.141-0.243c-3.539-0.93-5.499-3.338-5.584-7.026c-0.087-3.771,2.461-5.508,5.614-6.367
		c1.593-0.435,3.37-0.249,5.063-0.251C143.763,351.218,182.047,351.219,220.332,351.219z"/>
	<path fill-rule="evenodd" clip-rule="evenodd" fill="#B2B2B2" d="M198.444,409.619c-30.87,0-61.739,0-92.609,0
		c-1.234,0-2.474,0.059-3.704-0.023c-4.467-0.292-7.43-3.02-7.352-6.706c0.086-4.096,3.006-6.881,7.532-7.158
		c0.77-0.046,1.543-0.015,2.315-0.015c62.357,0,124.714,0.007,187.071-0.026c3.189-0.003,6.13,0.256,8.448,2.818
		c3.626,4.007,2.155,9.411-3.111,10.777c-1.605,0.418-3.366,0.321-5.055,0.323C260.801,409.624,229.622,409.619,198.444,409.619z"/>
	<path fill-rule="evenodd" clip-rule="evenodd" fill="#F3F6F1" d="M123.036,183.431c-15.146,0.03-28.281-12.902-28.276-27.841
		c0.005-15.186,12.878-28.591,27.559-28.697c15.691-0.114,29.016,13.142,28.976,28.826
		C151.257,170.945,138.555,183.4,123.036,183.431z"/>
	<path fill-rule="evenodd" clip-rule="evenodd" fill="#F3F6F1" d="M219.648,183.429c-14.705-0.105-27.665-13.325-27.555-28.106
		c0.114-15.367,13.304-28.617,28.298-28.43c15.321,0.192,27.491,13.181,27.311,29.147
		C247.532,171.189,234.882,183.539,219.648,183.429z"/>
	<path fill-rule="evenodd" clip-rule="evenodd" fill="#B2B2B2" d="M219.886,228.857c-22.219,0-44.438,0.004-66.657-0.008
		c-1.539,0-3.158,0.166-4.6-0.24c-3.145-0.886-5.703-2.592-5.625-6.36c0.077-3.687,2.027-6.1,5.563-7.037
		c1.31-0.348,2.754-0.25,4.138-0.25c44.901-0.012,89.802,0,134.704-0.03c2.859-0.002,5.564,0.192,7.677,2.416
		c1.756,1.849,3.23,3.836,2.277,6.588c-0.94,2.715-2.933,4.325-5.738,4.779c-1.358,0.22-2.769,0.138-4.155,0.138
		C264.941,228.859,242.414,228.857,219.886,228.857z"/>
	<path fill-rule="evenodd" clip-rule="evenodd" fill="#808080" d="M342.181,132.641c3.612,2.908,6.826,6.219,9.82,9.744
		c-11.188,10.395-21.729,21.435-32.413,32.331c-1.503,1.531-3.089,3.103-4.925,4.152c-2.603,1.487-5.371,1.437-7.567-0.995
		c-2.18-2.411-2.87-5.158-0.91-8.001c1.128-1.636,2.53-3.104,3.927-4.532C320.786,154.424,331.487,143.537,342.181,132.641z"/>
</g>
</svg>
