<?xml version="1.0" encoding="utf-8"?>
<!-- Generator: Adobe Illustrator 16.0.3, SVG Export Plug-In . SVG Version: 6.00 Build 0)  -->
<!DOCTYPE svg PUBLIC "-//W3C//DTD SVG 1.1//EN" "http://www.w3.org/Graphics/SVG/1.1/DTD/svg11.dtd">
<svg version="1.1" id="Ebene_1" xmlns="http://www.w3.org/2000/svg" xmlns:xlink="http://www.w3.org/1999/xlink" x="0px" y="0px"
	 width="16px" height="16px" viewBox="0 0 16 16" enable-background="new 0 0 16 16" xml:space="preserve">
<g>
	<path fill-rule="evenodd" clip-rule="evenodd" d="M2.281,0c0.234,0.109,0.331,0.292,0.313,0.551c-0.014,0.202,0,0.406-0.004,0.608
		C2.584,1.425,2.413,1.592,2.146,1.595c-0.176,0.002-0.352,0-0.55,0c0,0.16-0.011,0.31,0.002,0.457
		C1.631,2.427,1.386,2.623,1.05,2.594c-0.165-0.014-0.333-0.013-0.499,0C0.292,2.615,0.111,2.514,0,2.281c0-0.656,0-1.313,0-1.968
		C0.104,0.208,0.208,0.104,0.313,0C0.969,0,1.625,0,2.281,0z"/>
	<path fill-rule="evenodd" clip-rule="evenodd" d="M15.688,0c0.229,0.104,0.322,0.277,0.315,0.533C15.99,1.059,16.001,1.584,16,2.11
		c-0.001,0.313-0.169,0.479-0.482,0.48c-0.224,0.001-0.447,0.003-0.672,0c-0.267-0.004-0.437-0.175-0.441-0.44
		c-0.002-0.176,0-0.353,0-0.555c-0.177,0-0.348,0.001-0.517,0c-0.313-0.001-0.478-0.165-0.479-0.481
		c-0.002-0.187,0.01-0.375-0.003-0.562C13.388,0.293,13.483,0.109,13.719,0C14.375,0,15.031,0,15.688,0z"/>
	<path fill-rule="evenodd" clip-rule="evenodd" d="M0,13.718c0.109-0.233,0.292-0.329,0.551-0.313c0.202,0.014,0.405,0,0.608,0.004
		c0.266,0.006,0.433,0.178,0.436,0.444c0.002,0.177,0,0.352,0,0.55c0.17,0,0.329,0,0.488,0c0.353,0.001,0.507,0.158,0.508,0.516
		c0,0.177-0.01,0.354,0.002,0.529C2.613,15.707,2.516,15.891,2.281,16c-0.656,0-1.313,0-1.969,0C0.208,15.896,0.104,15.791,0,15.687
		C0,15.03,0,14.374,0,13.718z"/>
	<path fill-rule="evenodd" clip-rule="evenodd" d="M13.719,16c-0.235-0.11-0.33-0.294-0.313-0.553
		c0.013-0.191,0.001-0.386,0.003-0.577c0.003-0.297,0.169-0.464,0.463-0.467c0.172-0.001,0.342,0,0.531,0
		c0-0.188-0.001-0.364,0.001-0.538c0.002-0.285,0.17-0.453,0.457-0.456c0.225-0.003,0.448-0.003,0.672-0.001
		c0.295,0.003,0.466,0.172,0.466,0.465c0.002,0.531-0.009,1.063,0.005,1.593c0.007,0.257-0.087,0.429-0.315,0.534
		C15.031,16,14.375,16,13.719,16z"/>
	<path fill-rule="evenodd" clip-rule="evenodd" d="M6.969,0c0.233,0.11,0.331,0.292,0.313,0.551
		C7.268,0.753,7.283,0.957,7.278,1.159C7.272,1.424,7.1,1.594,6.833,1.595c-0.785,0.002-1.569,0.002-2.354,0
		c-0.266,0-0.439-0.171-0.445-0.436C4.03,0.957,4.044,0.753,4.031,0.551C4.013,0.292,4.109,0.11,4.344,0C5.219,0,6.094,0,6.969,0z"
		/>
	<path fill-rule="evenodd" clip-rule="evenodd" d="M11.656,0c0.233,0.11,0.331,0.292,0.313,0.551
		c-0.013,0.202,0.002,0.405-0.004,0.607c-0.005,0.265-0.179,0.436-0.444,0.436c-0.784,0.002-1.569,0.002-2.354,0
		c-0.267,0-0.439-0.171-0.445-0.436c-0.004-0.202,0.01-0.406-0.004-0.608C8.7,0.292,8.797,0.11,9.031,0C9.906,0,10.78,0,11.656,0z"
		/>
	<path fill-rule="evenodd" clip-rule="evenodd" d="M0,4.343c0.11-0.234,0.292-0.33,0.551-0.313c0.202,0.014,0.406,0,0.608,0.004
		C1.424,4.04,1.594,4.213,1.595,4.479c0.002,0.785,0.002,1.569,0,2.354C1.594,7.099,1.424,7.272,1.159,7.278
		c-0.202,0.004-0.406-0.01-0.608,0.004C0.292,7.299,0.111,7.202,0,6.969C0,6.094,0,5.219,0,4.343z"/>
	<path fill-rule="evenodd" clip-rule="evenodd" d="M0,9.031C0.111,8.797,0.292,8.7,0.551,8.718c0.202,0.014,0.406-0.001,0.608,0.004
		C1.424,8.728,1.594,8.9,1.595,9.167c0.002,0.784,0.002,1.569,0,2.354c-0.001,0.266-0.171,0.439-0.436,0.444
		c-0.202,0.004-0.406-0.009-0.608,0.004C0.292,11.987,0.11,11.89,0,11.656C0,10.78,0,9.906,0,9.031z"/>
	<path fill-rule="evenodd" clip-rule="evenodd" d="M4.344,16c-0.234-0.11-0.331-0.293-0.313-0.552c0.014-0.201,0-0.405,0.004-0.607
		c0.005-0.265,0.179-0.436,0.445-0.437c0.785-0.002,1.569-0.002,2.354,0c0.266,0.001,0.438,0.172,0.444,0.437
		c0.005,0.202-0.01,0.406,0.004,0.607C7.299,15.707,7.202,15.89,6.969,16C6.094,16,5.219,16,4.344,16z"/>
	<path fill-rule="evenodd" clip-rule="evenodd" d="M9.031,16c-0.234-0.11-0.331-0.293-0.313-0.552c0.014-0.201,0-0.405,0.004-0.607
		c0.006-0.265,0.179-0.436,0.445-0.437c0.784-0.002,1.569-0.002,2.354,0c0.266,0.001,0.439,0.172,0.444,0.437
		c0.006,0.202-0.009,0.406,0.004,0.607c0.019,0.259-0.079,0.441-0.313,0.552C10.78,16,9.906,16,9.031,16z"/>
	<path fill-rule="evenodd" clip-rule="evenodd" d="M14.404,5.656c0-0.39-0.002-0.78,0-1.17c0.001-0.275,0.172-0.448,0.446-0.452
		c0.233-0.003,0.468-0.003,0.702,0c0.273,0.004,0.446,0.178,0.446,0.453c0.002,0.78,0.002,1.56,0,2.34
		c0,0.274-0.173,0.448-0.446,0.452c-0.235,0.004-0.469,0.004-0.702,0c-0.274-0.004-0.445-0.176-0.446-0.452
		C14.402,6.436,14.404,6.046,14.404,5.656z"/>
	<path fill-rule="evenodd" clip-rule="evenodd" d="M14.404,10.347c-0.001-0.39-0.002-0.779,0-1.17
		c0.001-0.282,0.173-0.452,0.457-0.456c0.229-0.002,0.458-0.003,0.687,0c0.275,0.005,0.45,0.177,0.451,0.449
		c0.002,0.779,0.002,1.56,0,2.34c0,0.282-0.175,0.453-0.459,0.456c-0.229,0.002-0.457,0.003-0.686-0.001
		c-0.276-0.003-0.448-0.174-0.45-0.447C14.402,11.127,14.404,10.737,14.404,10.347z"/>
</g>
<g>
	<path fill="#4BAD4F" d="M7.958,2.564c0.121,0,0.24,0,0.361,0C8.33,2.577,8.346,2.574,8.36,2.575c0.016,0,0.032,0.002,0.043-0.011
		c0.021,0,0.043,0,0.064,0c0.117,0.025,0.236,0.025,0.355,0.03c0.439,0.017,0.852,0.153,1.256,0.314
		c0.499,0.201,0.966,0.465,1.383,0.806c0.582,0.48,1.065,1.04,1.416,1.708c0.227,0.427,0.396,0.874,0.5,1.344
		c0.051,0.224,0.05,0.451,0.067,0.676c0.004,0.027-0.009,0.057,0.012,0.082c0,0.021,0,0.043,0,0.062
		c-0.014,0.014-0.01,0.031-0.012,0.047c0.002,0.02-0.006,0.042,0.012,0.059c0,0.168,0,0.337,0,0.505
		c-0.014,0.013-0.01,0.029-0.012,0.043c0,0.014,0,0.025,0,0.039c0.002,0.015-0.004,0.031,0.012,0.043c0,0.028,0,0.056,0,0.085
		c-0.027,0.139-0.023,0.283-0.038,0.424c-0.047,0.484-0.209,0.936-0.409,1.372c-0.315,0.69-0.768,1.283-1.333,1.788
		c-0.621,0.554-1.338,0.945-2.144,1.176c-0.368,0.108-0.745,0.149-1.131,0.16c-0.428,0.015-0.857,0.018-1.282-0.03
		c-0.47-0.054-0.917-0.206-1.347-0.398c-0.5-0.224-0.96-0.509-1.369-0.872c-0.495-0.44-0.915-0.944-1.226-1.531
		c-0.233-0.438-0.413-0.896-0.519-1.384c-0.046-0.212-0.044-0.43-0.063-0.645c-0.002-0.02,0.005-0.041-0.011-0.058
		c0-0.031,0-0.059,0-0.087C2.6,8.31,2.6,8.295,2.587,8.28c0-0.021,0-0.041,0-0.063c0.016-0.042,0.016-0.084,0-0.127
		c0-0.098,0-0.196,0-0.294c0.016-0.042,0.016-0.083,0-0.125c0-0.056,0-0.114,0-0.169c0.024-0.147,0.024-0.296,0.036-0.446
		c0.026-0.34,0.128-0.663,0.245-0.979C3.104,5.44,3.446,4.862,3.903,4.356C4.61,3.573,5.47,3.025,6.489,2.723
		c0.329-0.099,0.664-0.136,1.005-0.15c0.02,0.001,0.042,0.007,0.061-0.009c0.028,0,0.057,0,0.084,0c0.015,0.013,0.028,0.013,0.042,0
		c0.043,0,0.084,0,0.127,0C7.857,2.581,7.908,2.581,7.958,2.564z"/>
	<path fill="#5BB45F" d="M7.958,2.564c-0.05,0.027-0.1,0.029-0.148,0C7.857,2.564,7.908,2.564,7.958,2.564z"/>
	<path fill="#70BE73" d="M2.587,7.671c0.032,0.043,0.023,0.083,0,0.126C2.587,7.755,2.587,7.714,2.587,7.671z"/>
	<path fill="#70BE73" d="M2.587,8.091c0.023,0.043,0.032,0.085,0,0.127C2.587,8.176,2.587,8.134,2.587,8.091z"/>
	<path fill="#8CCB8F" d="M13.456,7.692c-0.02-0.017-0.021-0.04-0.02-0.063c0.009-0.016,0.014-0.015,0.02,0
		C13.456,7.65,13.456,7.671,13.456,7.692z"/>
	<path fill="#B1DCB3" d="M7.682,2.564c-0.015,0.022-0.028,0.026-0.042,0C7.654,2.564,7.667,2.564,7.682,2.564z"/>
	<path fill="#94CE97" d="M8.361,2.582C8.345,2.584,8.329,2.581,8.318,2.564c0.015,0,0.027,0,0.042,0
		C8.377,2.569,8.377,2.575,8.361,2.582z"/>
	<path fill="#B1DCB3" d="M8.361,2.582C8.36,2.576,8.36,2.571,8.36,2.564c0.015,0,0.028,0,0.043,0
		C8.396,2.584,8.379,2.583,8.361,2.582z"/>
	<path fill="#A8D7AA" d="M13.456,7.629c-0.006,0-0.013,0-0.02,0c0-0.017-0.001-0.034,0.02-0.042
		C13.456,7.602,13.456,7.616,13.456,7.629z"/>
	<path fill="#86C889" d="M13.439,8.24c0.004-0.014,0.011-0.027,0.017-0.043c0,0.015,0,0.027,0,0.043
		C13.452,8.255,13.444,8.255,13.439,8.24z"/>
	<path fill="#9DD39F" d="M13.439,8.24c0.004,0,0.011,0,0.017,0c0,0.013,0,0.028,0,0.04c-0.006,0.018-0.012,0.018-0.017,0.003
		C13.439,8.269,13.439,8.254,13.439,8.24z"/>
	<path fill="#B1DCB3" d="M2.587,8.28c0.022,0.015,0.026,0.029,0,0.042C2.587,8.31,2.587,8.295,2.587,8.28z"/>
	<path fill="#B4DDB5" d="M13.439,8.281c0.004,0,0.011,0,0.017-0.001c0,0.015,0,0.028,0,0.042
		C13.434,8.317,13.436,8.299,13.439,8.281z"/>
	<path fill="#FEFEFE" d="M10.744,6.37c0.004,0.115-0.056,0.198-0.132,0.275c-0.539,0.533-1.076,1.064-1.614,1.598
		C8.506,8.73,8.013,9.216,7.52,9.704c-0.209,0.208-0.381,0.208-0.591,0c-0.5-0.496-0.999-0.991-1.5-1.484
		C5.37,8.16,5.32,8.099,5.304,8.017c-0.028-0.149,0.033-0.29,0.159-0.361C5.591,7.583,5.75,7.595,5.865,7.702
		c0.127,0.117,0.247,0.241,0.369,0.363C6.536,8.362,6.841,8.661,7.14,8.963C7.204,9.028,7.238,9.037,7.31,8.967
		c0.927-0.923,1.858-1.844,2.788-2.765c0.033-0.033,0.063-0.066,0.1-0.095c0.109-0.085,0.232-0.101,0.357-0.042
		C10.68,6.126,10.743,6.23,10.744,6.37z"/>
</g>
</svg>
