<?xml version="1.0" encoding="utf-8"?>
<!-- Generator: Adobe Illustrator 16.0.3, SVG Export Plug-In . SVG Version: 6.00 Build 0)  -->
<!DOCTYPE svg PUBLIC "-//W3C//DTD SVG 1.1//EN" "http://www.w3.org/Graphics/SVG/1.1/DTD/svg11.dtd">
<svg version="1.1" id="Ebene_1" xmlns="http://www.w3.org/2000/svg" xmlns:xlink="http://www.w3.org/1999/xlink" x="0px" y="0px"
	 width="16px" height="16px" viewBox="0 0 16 16" enable-background="new 0 0 16 16" xml:space="preserve">
<g>
	<path d="M2.281,0c0.234,0.109,0.331,0.292,0.313,0.551c-0.014,0.202,0,0.406-0.004,0.608C2.584,1.425,2.413,1.592,2.146,1.595
		c-0.176,0.002-0.352,0-0.55,0c0,0.16-0.011,0.31,0.002,0.457C1.631,2.427,1.386,2.623,1.05,2.594c-0.165-0.014-0.333-0.013-0.499,0
		C0.292,2.615,0.111,2.514,0,2.281c0-0.656,0-1.313,0-1.968C0.104,0.208,0.208,0.104,0.313,0C0.969,0,1.625,0,2.281,0z"/>
	<path d="M15.688,0c0.229,0.104,0.322,0.277,0.315,0.533C15.99,1.059,16.001,1.584,16,2.11c-0.001,0.313-0.169,0.479-0.482,0.48
		c-0.224,0.001-0.447,0.003-0.672,0c-0.267-0.004-0.437-0.175-0.441-0.44c-0.002-0.176,0-0.353,0-0.555
		c-0.176,0-0.348,0.001-0.516,0c-0.313-0.001-0.479-0.165-0.479-0.481c-0.002-0.187,0.01-0.375-0.003-0.562
		C13.389,0.293,13.482,0.109,13.719,0C14.375,0,15.031,0,15.688,0z"/>
	<path d="M0,13.718c0.109-0.233,0.292-0.329,0.551-0.313c0.202,0.015,0.405,0,0.608,0.005c0.266,0.006,0.433,0.178,0.436,0.444
		c0.002,0.176,0,0.352,0,0.549c0.17,0,0.329,0,0.488,0c0.353,0.002,0.507,0.158,0.508,0.517c0,0.177-0.01,0.354,0.002,0.528
		c0.02,0.26-0.077,0.443-0.312,0.553c-0.656,0-1.313,0-1.969,0C0.208,15.896,0.104,15.791,0,15.688C0,15.029,0,14.374,0,13.718z"/>
	<path d="M13.719,16c-0.234-0.109-0.33-0.294-0.313-0.553c0.013-0.191,0.001-0.387,0.003-0.577c0.003-0.298,0.169-0.464,0.463-0.468
		c0.172,0,0.342,0,0.53,0c0-0.188,0-0.363,0.002-0.537c0.002-0.285,0.17-0.453,0.457-0.456c0.225-0.003,0.447-0.003,0.672-0.001
		c0.295,0.003,0.466,0.172,0.466,0.465c0.002,0.531-0.009,1.063,0.005,1.593c0.007,0.257-0.087,0.429-0.314,0.534
		C15.031,16,14.375,16,13.719,16z"/>
	<path d="M6.969,0C7.202,0.11,7.3,0.292,7.282,0.551C7.268,0.753,7.283,0.957,7.278,1.159C7.272,1.424,7.1,1.594,6.833,1.595
		c-0.785,0.002-1.569,0.002-2.354,0c-0.266,0-0.439-0.171-0.445-0.436C4.03,0.957,4.044,0.753,4.031,0.551
		C4.013,0.292,4.109,0.11,4.344,0C5.219,0,6.094,0,6.969,0z"/>
	<path d="M11.656,0c0.232,0.11,0.33,0.292,0.313,0.551c-0.013,0.202,0.002,0.405-0.004,0.607c-0.005,0.265-0.179,0.436-0.443,0.436
		c-0.785,0.002-1.569,0.002-2.354,0c-0.267,0-0.438-0.171-0.444-0.436C8.718,0.956,8.732,0.752,8.718,0.55
		C8.7,0.292,8.797,0.11,9.031,0C9.906,0,10.779,0,11.656,0z"/>
	<path d="M0,4.343c0.11-0.234,0.292-0.33,0.551-0.313c0.202,0.014,0.406,0,0.608,0.004C1.424,4.04,1.594,4.213,1.595,4.479
		c0.002,0.785,0.002,1.569,0,2.354C1.594,7.099,1.424,7.272,1.159,7.278c-0.202,0.004-0.406-0.01-0.608,0.004
		C0.292,7.299,0.111,7.202,0,6.969C0,6.094,0,5.219,0,4.343z"/>
	<path d="M0,9.031C0.111,8.797,0.292,8.7,0.551,8.718c0.202,0.015,0.406-0.001,0.608,0.005C1.424,8.729,1.594,8.9,1.595,9.167
		c0.002,0.784,0.002,1.569,0,2.354c-0.001,0.266-0.171,0.438-0.436,0.443c-0.202,0.004-0.406-0.009-0.608,0.004
		C0.292,11.986,0.11,11.891,0,11.656C0,10.779,0,9.906,0,9.031z"/>
	<path d="M4.344,16c-0.234-0.109-0.331-0.293-0.313-0.553c0.014-0.2,0-0.404,0.004-0.606c0.005-0.265,0.179-0.437,0.445-0.437
		c0.785-0.002,1.569-0.002,2.354,0c0.266,0,0.438,0.172,0.444,0.437c0.005,0.202-0.01,0.406,0.004,0.606
		c0.017,0.26-0.08,0.443-0.313,0.553C6.094,16,5.219,16,4.344,16z"/>
	<path d="M9.031,16c-0.234-0.109-0.331-0.293-0.313-0.553c0.015-0.2,0-0.404,0.005-0.606c0.006-0.265,0.178-0.437,0.444-0.437
		c0.784-0.002,1.569-0.002,2.354,0c0.266,0,0.438,0.172,0.443,0.437c0.006,0.202-0.009,0.406,0.004,0.606
		c0.02,0.26-0.078,0.441-0.313,0.553C10.779,16,9.906,16,9.031,16z"/>
	<path d="M14.404,5.656c0-0.39-0.002-0.78,0-1.17c0-0.275,0.172-0.448,0.445-0.452c0.233-0.003,0.469-0.003,0.702,0
		c0.273,0.004,0.446,0.178,0.446,0.453c0.002,0.78,0.002,1.56,0,2.34c0,0.274-0.173,0.448-0.446,0.452
		c-0.235,0.004-0.469,0.004-0.702,0c-0.273-0.004-0.445-0.176-0.445-0.452C14.402,6.436,14.404,6.046,14.404,5.656z"/>
	<path d="M14.404,10.348c-0.002-0.391-0.002-0.779,0-1.17c0-0.283,0.173-0.453,0.457-0.457c0.229-0.002,0.457-0.003,0.687,0
		c0.275,0.006,0.45,0.178,0.451,0.449c0.002,0.779,0.002,1.561,0,2.34c0,0.282-0.175,0.453-0.459,0.456
		c-0.229,0.002-0.457,0.003-0.687-0.001c-0.275-0.003-0.447-0.174-0.449-0.447C14.402,11.127,14.404,10.736,14.404,10.348z"/>
</g>
<g>
	<path fill="#F34336" d="M8.374,2.564c0.028,0,0.056,0,0.084,0c0.157,0.025,0.317,0.021,0.475,0.037
		c0.403,0.044,0.786,0.167,1.158,0.321c0.563,0.232,1.079,0.545,1.532,0.952c0.486,0.433,0.896,0.931,1.206,1.506
		c0.267,0.495,0.459,1.017,0.564,1.57c0.031,0.153,0.037,0.307,0.044,0.462c0.025,0.497,0.031,0.998-0.027,1.494
		c-0.057,0.468-0.208,0.914-0.404,1.343c-0.196,0.431-0.44,0.83-0.742,1.194c-0.462,0.558-1.003,1.022-1.642,1.368
		c-0.496,0.267-1.018,0.457-1.569,0.563c-0.151,0.029-0.304,0.035-0.456,0.043c-0.503,0.024-1.009,0.033-1.51-0.029
		c-0.463-0.057-0.901-0.208-1.325-0.399c-0.692-0.313-1.293-0.754-1.803-1.314c-0.571-0.627-0.973-1.349-1.217-2.162
		C2.644,9.178,2.606,8.836,2.595,8.488c0-0.018,0.002-0.035-0.011-0.049c0-0.029,0-0.057,0-0.084
		C2.599,8.34,2.593,8.323,2.595,8.307c-0.003-0.02,0.006-0.042-0.011-0.06c0-0.169,0-0.339,0-0.508
		C2.601,7.721,2.592,7.7,2.595,7.68C2.593,7.664,2.599,7.646,2.584,7.633c0-0.028,0-0.056,0-0.085
		c0.023-0.146,0.021-0.297,0.034-0.445c0.029-0.343,0.129-0.67,0.247-0.992c0.236-0.644,0.579-1.227,1.036-1.736
		c0.446-0.499,0.957-0.919,1.554-1.229c0.441-0.226,0.901-0.406,1.387-0.51c0.212-0.045,0.43-0.042,0.644-0.063
		c0.02-0.003,0.042,0.005,0.06-0.011c0.036,0,0.07,0,0.105,0c0.022,0.015,0.043,0.015,0.064,0c0.198,0,0.396,0,0.594,0
		C8.331,2.579,8.352,2.579,8.374,2.564z"/>
	<path fill="#F89B95" d="M7.715,2.564c-0.02,0.023-0.042,0.031-0.063,0C7.674,2.564,7.695,2.564,7.715,2.564z"/>
	<path fill="#F89B95" d="M8.374,2.564c-0.022,0.031-0.043,0.023-0.064,0C8.331,2.564,8.352,2.564,8.374,2.564z"/>
	<path fill="#F7857D" d="M2.603,7.674c0.003,0.024,0.001,0.046-0.019,0.064c0-0.022,0-0.043,0-0.063
		C2.589,7.66,2.596,7.66,2.603,7.674z"/>
	<path fill="#F7857D" d="M2.584,8.247c0.02,0.018,0.021,0.042,0.019,0.065C2.596,8.327,2.589,8.327,2.584,8.311
		C2.584,8.29,2.584,8.269,2.584,8.247z"/>
	<path fill="#F9A19A" d="M2.603,7.674c-0.006,0-0.013,0-0.019,0c0-0.014,0-0.028,0-0.043C2.604,7.64,2.603,7.657,2.603,7.674z"/>
	<path fill="#F9A29B" d="M2.584,8.311C2.59,8.312,2.596,8.312,2.603,8.312c0,0.017,0.001,0.033-0.019,0.042
		C2.584,8.339,2.584,8.325,2.584,8.311z"/>
	<path fill="#F9F9F9" d="M6.309,5.862c0.17,0,0.282,0.066,0.381,0.166c0.413,0.416,0.83,0.828,1.241,1.246
		c0.066,0.067,0.099,0.067,0.164,0c0.418-0.425,0.841-0.848,1.266-1.268c0.219-0.219,0.554-0.185,0.711,0.066
		c0.118,0.185,0.09,0.409-0.078,0.58C9.703,6.946,9.41,7.237,9.117,7.53C8.991,7.657,8.865,7.787,8.733,7.909
		C8.669,7.971,8.66,8.004,8.729,8.074c0.422,0.413,0.836,0.833,1.255,1.25c0.141,0.139,0.196,0.3,0.136,0.492
		c-0.105,0.324-0.505,0.413-0.757,0.167C9.076,9.7,8.794,9.413,8.509,9.128C8.365,8.985,8.221,8.848,8.083,8.7
		C8.025,8.64,7.996,8.646,7.941,8.702C7.522,9.126,7.099,9.548,6.675,9.969c-0.162,0.162-0.369,0.198-0.551,0.104
		C5.85,9.929,5.797,9.575,6.021,9.345c0.272-0.277,0.551-0.55,0.824-0.825c0.15-0.149,0.296-0.303,0.451-0.447
		c0.063-0.06,0.067-0.093,0.003-0.156C6.874,7.496,6.452,7.074,6.031,6.65C5.806,6.423,5.842,6.082,6.104,5.924
		C6.175,5.882,6.253,5.863,6.309,5.862z"/>
</g>
</svg>
