<?xml version="1.0" encoding="utf-8"?>
<!-- Generator: Adobe Illustrator 16.0.3, SVG Export Plug-In . SVG Version: 6.00 Build 0)  -->
<!DOCTYPE svg PUBLIC "-//W3C//DTD SVG 1.1//EN" "http://www.w3.org/Graphics/SVG/1.1/DTD/svg11.dtd">
<svg version="1.1" id="Ebene_1" xmlns="http://www.w3.org/2000/svg" xmlns:xlink="http://www.w3.org/1999/xlink" x="0px" y="0px"
	 width="269px" height="400px" viewBox="0 0 269 400" enable-background="new 0 0 269 400" xml:space="preserve">
<symbol  id="Neues_Symbol" viewBox="-128.126 -25.002 256.252 50.004">
	<polygon fill="#88B04B" points="-62.88,-25.002 -3.13,-25.002 -3.13,25.002 -62.88,25.002 	"/>
	<polygon fill="#88B04B" points="61.537,25.002 3.12,25.002 3.12,-25.002 61.537,-25.002 	"/>
	<polygon fill="#88B04B" points="67.787,25.002 67.787,-25.002 128.126,-25.002 128.126,25.002 	"/>
	<polygon fill="#88B04B" points="-69.13,25.002 -128.126,25.002 -128.126,-25.002 -69.13,-25.002 	"/>
</symbol>
<rect x="0.125" fill="#FFFFFF" width="268.75" height="400"/>
<rect x="75.125" y="93.753" fill="#88B04B" width="187.496" height="212.503"/>
<rect x="6.378" y="6.254" fill="#88B04B" width="256.252" height="50.003"/>
<rect x="6.378" y="312.501" fill="#88B04B" width="256.252" height="24.997"/>
<rect x="6.378" y="62.502" fill="#88B04B" width="256.252" height="24.997"/>
<rect x="6.378" y="93.753" fill="#B2E063" width="62.502" height="212.503"/>
<use xlink:href="#Neues_Symbol"  width="256.252" height="50.004" x="-128.126" y="-25.002" transform="matrix(1 0 0 -1 135 367.5)" overflow="visible"/>
</svg>
